{
	"variables": [],
	"info": {
		"name": "CloudPython",
		"_postman_id": "2fcc8593-7d86-8e90-8e94-008f67ae6b28",
		"description": "",
		"schema": "https://schema.getpostman.com/json/collection/v2.0.0/collection.json"
	},
	"item": [
		{
			"name": "localhost:9005/api/paste/",
			"event": [
				{
					"listen": "test",
					"script": {
						"type": "text/javascript",
						"exec": [
							"var responseJSON = JSON.parse(responseBody);",
							"postman.setEnvironmentVariable(\"TESTID\", responseJSON.paste._id);"
						]
					}
				}
			],
			"request": {
				"url": "localhost:9005/api/paste/",
				"method": "POST",
				"header": [
					{
						"key": "Content-Type",
						"value": "application/json",
						"description": ""
					}
				],
				"body": {
					"mode": "raw",
					"raw": "{\n\t\"title\":\"Correct Paste\",\n\t\"language\": \"PYTHON\",\n\t\"pasteText\": \"print('This paste should always pass validation')\"\n}"
				},
				"description": "CloudPython Create"
			},
			"response": []
		},
		{
			"name": "localhost:9005/api/paste/{{TESTID}}",
			"request": {
				"url": "localhost:9005/api/paste/{{TESTID}}",
				"method": "GET",
				"header": [],
				"body": {},
				"description": "Paste Read"
			},
			"response": []
		},
		{
			"name": "localhost:9005/api/paste/{{TESTID}}",
			"request": {
				"url": "localhost:9005/api/paste/{{TESTID}}",
				"method": "PUT",
				"header": [
					{
						"key": "Content-Type",
						"value": "application/json",
						"description": ""
					}
				],
				"body": {
					"mode": "raw",
					"raw": "{\n\t\"title\":\"New Title\"\n}"
				},
				"description": "Paste Update"
			},
			"response": []
		},
		{
			"name": "localhost:9005/api/paste/{{TESTID}}",
			"request": {
				"url": "localhost:9005/api/paste/{{TESTID}}",
				"method": "DELETE",
				"header": [],
				"body": {},
				"description": "Paste Delete"
			},
			"response": []
		},
		{
			"name": "localhost:9005/api/paste/{{TESTID}}",
			"request": {
				"url": "localhost:9005/api/paste/{{TESTID}}",
				"method": "POST",
				"header": [],
				"body": {},
				"description": "Paste Execute"
			},
			"response": []
		}
	]
}